…
    r

    mutate(cumulative_area = cumsum(total_area),
           percentile_10 = ifelse(cumulative_area <= 0.1 * sum(total_area), total_area, 0))

Assurez-vous également que le chargement initial des données (raster, sf) s'est déroulé sans erreur et que toutes les opérations de manipulation de données sont effectuées sur les objets corrects et conformes aux attentes.

Il semble que l'erreur soit due au fait que le nom de la colonne `biodiversity_index` n'est pas correctement reconnu dans `biodiv_concessions`
c'est normal, cette colonne n'existe pas. > biodiv_concessions
Simple feature collection with 89 features and 2 fields
Geometry type: MULTIPOLYGON
Dimension:     XY
Bounding box:  xmin: 191318.4 ymin: 68323.38 xmax: 768975.6 ymax: 752603
Projected CRS: GTM
# A tibble: 89 × 3
   OBJECTID_1   total_area                                                                                geometry
        <dbl>        [m^2]                                                                      <MULTIPOLYGON [m]>
 1          0 24145036625. (((400277.5 85911.84, 400695 85628.15, 401159.1 85320.97, 401762.4 85038.03, 402017....
 2          1  1398095465. (((527503.9 722735.8, 532728.6 712338, 533997.7 712603.7, 543531.7 693624.1, 543565....
 3          2  3321285436. (((516686.9 337110.5, 516688 335723.3, 516688.6 334930.8, 516208.3 334930.9, 515604....
 4          3  2773318164. (((529325.1 501823.3, 529411.3 501783.1, 529442.5 501786.7, 529534.8 501818.3, 52961...
 5          4  1544314304. (((431443.3 408560.2, 431413.4 408462.5, 431368.5 408388.3, 431303 408321.1, 431224....
 6          5  1469103457. (((616929.6 566961.4, 616990.3 552657.3, 605720.5 563653.2, 611221.5 566935.4, 61689...
 7          6  2168259611. (((645063.4 463879.8, 645055.8 461999.6, 641312.6 461992.8, 641335.1 454593.5, 64136...
 8          7  1892286696. (((650348.6 256916.3, 650351.2 250355.9, 650376.8 238210.8, 633451.6 245095.7, 62943...
 9          8  3138338454. (((370169.8 464591.4, 380401.1 450067.7, 388750.4 455922.3, 388753.3 444591, 400672 ...
10          9  1072884167. (((309183.1 503032.7, 309275.7 503027.5, 309338.1 503030.8, 309376.3 503032.8, 30937...
# ℹ 79 more rows
# ℹ Use print(n = ...) to see more rows
…
